%YAML 1.1
%TAG !u! tag:unity3d.com,2011:
--- !u!114 &11400000
MonoBehaviour:
  m_ObjectHideFlags: 0
  m_CorrespondingSourceObject: {fileID: 0}
  m_PrefabInstance: {fileID: 0}
  m_PrefabAsset: {fileID: 0}
  m_GameObject: {fileID: 0}
  m_Enabled: 1
  m_EditorHideFlags: 0
  m_Script: {fileID: 11500000, guid: 8386dbb2e6f75dc48b1a5e5996063e17, type: 3}
  m_Name: Float
  m_EditorClassIdentifier: 
  _description: 
  _defaultValue: -2.57
  _currentValue: -2.57
