%YAML 1.1
%TAG !u! tag:unity3d.com,2011:
--- !u!1 &1571812430676195519
GameObject:
  m_ObjectHideFlags: 0
  m_CorrespondingSourceObject: {fileID: 0}
  m_PrefabInstance: {fileID: 0}
  m_PrefabAsset: {fileID: 0}
  serializedVersion: 6
  m_Component:
  - component: {fileID: 1571812430676195517}
  - component: {fileID: 1571812430676195516}
  m_Layer: 0
  m_Name: Example
  m_TagString: Untagged
  m_Icon: {fileID: 0}
  m_NavMeshLayer: 0
  m_StaticEditorFlags: 0
  m_IsActive: 1
--- !u!4 &1571812430676195517
Transform:
  m_ObjectHideFlags: 0
  m_CorrespondingSourceObject: {fileID: 0}
  m_PrefabInstance: {fileID: 0}
  m_PrefabAsset: {fileID: 0}
  m_GameObject: {fileID: 1571812430676195519}
  m_LocalRotation: {x: 0, y: 0, z: 0, w: 1}
  m_LocalPosition: {x: 0, y: 0, z: 0}
  m_LocalScale: {x: 1, y: 1, z: 1}
  m_Children: []
  m_Father: {fileID: 0}
  m_RootOrder: 0
  m_LocalEulerAnglesHint: {x: 0, y: 0, z: 0}
--- !u!114 &1571812430676195516
MonoBehaviour:
  m_ObjectHideFlags: 0
  m_CorrespondingSourceObject: {fileID: 0}
  m_PrefabInstance: {fileID: 0}
  m_PrefabAsset: {fileID: 0}
  m_GameObject: {fileID: 1571812430676195519}
  m_Enabled: 1
  m_EditorHideFlags: 0
  m_Script: {fileID: 11500000, guid: 80e1fdc85a72f424a9ba4b2ca1e64c63, type: 3}
  m_Name: 
  m_EditorClassIdentifier: 
  foo: {fileID: 11400000, guid: b0265808a29548542908c12881231647, type: 2}
  bar: {fileID: 11400000, guid: cfe15f908bff5784abc3b4ab31bb88f6, type: 2}
  vectorA: {fileID: 11400000, guid: 58b6727f92e4b624d8150ab598d1938d, type: 2}
  vectorB: {fileID: 11400000, guid: 0fe61d959e8bdfa4693371d0e5aabf52, type: 2}
  vectorC: {fileID: 11400000, guid: 5d1ae074cc3b75845a00ae77da825b54, type: 2}
  go: {fileID: 11400000, guid: 0632c2d66c0b7cf468fa2007c249e793, type: 2}
  gos:
  - {fileID: 11400000, guid: 0632c2d66c0b7cf468fa2007c249e793, type: 2}
  - {fileID: 11400000, guid: 0632c2d66c0b7cf468fa2007c249e793, type: 2}
  - {fileID: 0}
